#group;FALSE;FALSE;TRUE;TRUE;FALSE;FALSE;TRUE;TRUE;TRUE;TRUE;TRUE;TRUE;TRUE;TRUE;TRUE;TRUE;TRUE;TRUE
#datatype;string;long;dateTime:RFC3339;dateTime:RFC3339;dateTime:RFC3339;string;string;string;string;string;string;string;string;string;string;string;string;string
#default;last;;;;;;;;;;;;;;;;;
;result;table;_start;_stop;_time;_value;Channel;Computer;EventID;Keywords;Level;LevelText;Opcode;Source;Task;_field;_measurement;host
;;0;2022-01-31T11:18:41.225843861Z;2022-01-31T17:18:41.225843861Z;2022-01-31T11:29:10Z;10.0.14393.2248;Application;dc.windomain.local;902;Classic;0;Information;0;Microsoft-Windows-Security-SPP;0;Data;win_eventlog;dc
;;0;2022-01-31T11:18:41.225843861Z;2022-01-31T17:18:41.225843861Z;2022-01-31T11:59:10Z;10.0.14393.2248;Application;dc.windomain.local;902;Classic;0;Information;0;Microsoft-Windows-Security-SPP;0;Data;win_eventlog;dc
;;0;2022-01-31T11:18:41.225843861Z;2022-01-31T17:18:41.225843861Z;2022-01-31T12:29:10Z;10.0.14393.2248;Application;dc.windomain.local;902;Classic;0;Information;0;Microsoft-Windows-Security-SPP;0;Data;win_eventlog;dc
;;0;2022-01-31T11:18:41.225843861Z;2022-01-31T17:18:41.225843861Z;2022-01-31T12:59:20Z;10.0.14393.2248;Application;dc.windomain.local;902;Classic;0;Information;0;Microsoft-Windows-Security-SPP;0;Data;win_eventlog;dc
;;0;2022-01-31T11:18:41.225843861Z;2022-01-31T17:18:41.225843861Z;2022-01-31T13:29:20Z;10.0.14393.2248;Application;dc.windomain.local;902;Classic;0;Information;0;Microsoft-Windows-Security-SPP;0;Data;win_eventlog;dc
;;0;2022-01-31T11:18:41.225843861Z;2022-01-31T17:18:41.225843861Z;2022-01-31T13:59:20Z;10.0.14393.2248;Application;dc.windomain.local;902;Classic;0;Information;0;Microsoft-Windows-Security-SPP;0;Data;win_eventlog;dc
;;0;2022-01-31T11:18:41.225843861Z;2022-01-31T17:18:41.225843861Z;2022-01-31T14:29:20Z;10.0.14393.2248;Application;dc.windomain.local;902;Classic;0;Information;0;Microsoft-Windows-Security-SPP;0;Data;win_eventlog;dc
;;0;2022-01-31T11:18:41.225843861Z;2022-01-31T17:18:41.225843861Z;2022-01-31T14:59:20Z;10.0.14393.2248;Application;dc.windomain.local;902;Classic;0;Information;0;Microsoft-Windows-Security-SPP;0;Data;win_eventlog;dc
;;0;2022-01-31T11:18:41.225843861Z;2022-01-31T17:18:41.225843861Z;2022-01-31T15:29:20Z;10.0.14393.2248;Application;dc.windomain.local;902;Classic;0;Information;0;Microsoft-Windows-Security-SPP;0;Data;win_eventlog;dc
;;0;2022-01-31T11:18:41.225843861Z;2022-01-31T17:18:41.225843861Z;2022-01-31T15:59:20Z;10.0.14393.2248;Application;dc.windomain.local;902;Classic;0;Information;0;Microsoft-Windows-Security-SPP;0;Data;win_eventlog;dc
;;0;2022-01-31T11:18:41.225843861Z;2022-01-31T17:18:41.225843861Z;2022-01-31T16:29:20Z;10.0.14393.2248;Application;dc.windomain.local;902;Classic;0;Information;0;Microsoft-Windows-Security-SPP;0;Data;win_eventlog;dc
;;0;2022-01-31T11:18:41.225843861Z;2022-01-31T17:18:41.225843861Z;2022-01-31T16:59:20Z;10.0.14393.2248;Application;dc.windomain.local;902;Classic;0;Information;0;Microsoft-Windows-Security-SPP;0;Data;win_eventlog;dc
;;;;;;;;;;;;;;;;;;
#group;FALSE;FALSE;TRUE;TRUE;FALSE;FALSE;TRUE;TRUE;TRUE;TRUE;TRUE;TRUE;TRUE;TRUE;TRUE;TRUE;TRUE;TRUE
#datatype;string;long;dateTime:RFC3339;dateTime:RFC3339;dateTime:RFC3339;long;string;string;string;string;string;string;string;string;string;string;string;string
#default;last;;;;;;;;;;;;;;;;;
;result;table;_start;_stop;_time;_value;Channel;Computer;EventID;Keywords;Level;LevelText;Opcode;Source;Task;_field;_measurement;host
;;1;2022-01-31T11:18:41.225843861Z;2022-01-31T17:18:41.225843861Z;2022-01-31T11:29:10Z;2247;Application;dc.windomain.local;902;Classic;0;Information;0;Microsoft-Windows-Security-SPP;0;EventRecordID;win_eventlog;dc
;;1;2022-01-31T11:18:41.225843861Z;2022-01-31T17:18:41.225843861Z;2022-01-31T11:59:10Z;2254;Application;dc.windomain.local;902;Classic;0;Information;0;Microsoft-Windows-Security-SPP;0;EventRecordID;win_eventlog;dc
;;1;2022-01-31T11:18:41.225843861Z;2022-01-31T17:18:41.225843861Z;2022-01-31T12:29:10Z;2262;Application;dc.windomain.local;902;Classic;0;Information;0;Microsoft-Windows-Security-SPP;0;EventRecordID;win_eventlog;dc
;;1;2022-01-31T11:18:41.225843861Z;2022-01-31T17:18:41.225843861Z;2022-01-31T12:59:20Z;2269;Application;dc.windomain.local;902;Classic;0;Information;0;Microsoft-Windows-Security-SPP;0;EventRecordID;win_eventlog;dc
;;1;2022-01-31T11:18:41.225843861Z;2022-01-31T17:18:41.225843861Z;2022-01-31T13:29:20Z;2276;Application;dc.windomain.local;902;Classic;0;Information;0;Microsoft-Windows-Security-SPP;0;EventRecordID;win_eventlog;dc
;;1;2022-01-31T11:18:41.225843861Z;2022-01-31T17:18:41.225843861Z;2022-01-31T13:59:20Z;2283;Application;dc.windomain.local;902;Classic;0;Information;0;Microsoft-Windows-Security-SPP;0;EventRecordID;win_eventlog;dc
;;1;2022-01-31T11:18:41.225843861Z;2022-01-31T17:18:41.225843861Z;2022-01-31T14:29:20Z;2291;Application;dc.windomain.local;902;Classic;0;Information;0;Microsoft-Windows-Security-SPP;0;EventRecordID;win_eventlog;dc
;;1;2022-01-31T11:18:41.225843861Z;2022-01-31T17:18:41.225843861Z;2022-01-31T14:59:20Z;2298;Application;dc.windomain.local;902;Classic;0;Information;0;Microsoft-Windows-Security-SPP;0;EventRecordID;win_eventlog;dc
;;1;2022-01-31T11:18:41.225843861Z;2022-01-31T17:18:41.225843861Z;2022-01-31T15:29:20Z;2305;Application;dc.windomain.local;902;Classic;0;Information;0;Microsoft-Windows-Security-SPP;0;EventRecordID;win_eventlog;dc
;;1;2022-01-31T11:18:41.225843861Z;2022-01-31T17:18:41.225843861Z;2022-01-31T15:59:20Z;2312;Application;dc.windomain.local;902;Classic;0;Information;0;Microsoft-Windows-Security-SPP;0;EventRecordID;win_eventlog;dc
;;1;2022-01-31T11:18:41.225843861Z;2022-01-31T17:18:41.225843861Z;2022-01-31T16:29:20Z;2319;Application;dc.windomain.local;902;Classic;0;Information;0;Microsoft-Windows-Security-SPP;0;EventRecordID;win_eventlog;dc
;;1;2022-01-31T11:18:41.225843861Z;2022-01-31T17:18:41.225843861Z;2022-01-31T16:59:20Z;2326;Application;dc.windomain.local;902;Classic;0;Information;0;Microsoft-Windows-Security-SPP;0;EventRecordID;win_eventlog;dc
;;;;;;;;;;;;;;;;;;
#group;FALSE;FALSE;TRUE;TRUE;FALSE;FALSE;TRUE;TRUE;TRUE;TRUE;TRUE;TRUE;TRUE;TRUE;TRUE;TRUE;TRUE;TRUE
#datatype;string;long;dateTime:RFC3339;dateTime:RFC3339;dateTime:RFC3339;string;string;string;string;string;string;string;string;string;string;string;string;string
#default;last;;;;;;;;;;;;;;;;;
;result;table;_start;_stop;_time;_value;Channel;Computer;EventID;Keywords;Level;LevelText;Opcode;Source;Task;_field;_measurement;host
;;2;2022-01-31T11:18:41.225843861Z;2022-01-31T17:18:41.225843861Z;2022-01-31T11:29:10Z;The Software Protection service has started.;Application;dc.windomain.local;902;Classic;0;Information;0;Microsoft-Windows-Security-SPP;0;Message;win_eventlog;dc
;;2;2022-01-31T11:18:41.225843861Z;2022-01-31T17:18:41.225843861Z;2022-01-31T11:59:10Z;The Software Protection service has started.;Application;dc.windomain.local;902;Classic;0;Information;0;Microsoft-Windows-Security-SPP;0;Message;win_eventlog;dc
;;2;2022-01-31T11:18:41.225843861Z;2022-01-31T17:18:41.225843861Z;2022-01-31T12:29:10Z;The Software Protection service has started.;Application;dc.windomain.local;902;Classic;0;Information;0;Microsoft-Windows-Security-SPP;0;Message;win_eventlog;dc
;;2;2022-01-31T11:18:41.225843861Z;2022-01-31T17:18:41.225843861Z;2022-01-31T12:59:20Z;The Software Protection service has started.;Application;dc.windomain.local;902;Classic;0;Information;0;Microsoft-Windows-Security-SPP;0;Message;win_eventlog;dc
;;2;2022-01-31T11:18:41.225843861Z;2022-01-31T17:18:41.225843861Z;2022-01-31T13:29:20Z;The Software Protection service has started.;Application;dc.windomain.local;902;Classic;0;Information;0;Microsoft-Windows-Security-SPP;0;Message;win_eventlog;dc
;;2;2022-01-31T11:18:41.225843861Z;2022-01-31T17:18:41.225843861Z;2022-01-31T13:59:20Z;The Software Protection service has started.;Application;dc.windomain.local;902;Classic;0;Information;0;Microsoft-Windows-Security-SPP;0;Message;win_eventlog;dc
;;2;2022-01-31T11:18:41.225843861Z;2022-01-31T17:18:41.225843861Z;2022-01-31T14:29:20Z;The Software Protection service has started.;Application;dc.windomain.local;902;Classic;0;Information;0;Microsoft-Windows-Security-SPP;0;Message;win_eventlog;dc
;;2;2022-01-31T11:18:41.225843861Z;2022-01-31T17:18:41.225843861Z;2022-01-31T14:59:20Z;The Software Protection service has started.;Application;dc.windomain.local;902;Classic;0;Information;0;Microsoft-Windows-Security-SPP;0;Message;win_eventlog;dc
;;2;2022-01-31T11:18:41.225843861Z;2022-01-31T17:18:41.225843861Z;2022-01-31T15:29:20Z;The Software Protection service has started.;Application;dc.windomain.local;902;Classic;0;Information;0;Microsoft-Windows-Security-SPP;0;Message;win_eventlog;dc
;;2;2022-01-31T11:18:41.225843861Z;2022-01-31T17:18:41.225843861Z;2022-01-31T15:59:20Z;The Software Protection service has started.;Application;dc.windomain.local;902;Classic;0;Information;0;Microsoft-Windows-Security-SPP;0;Message;win_eventlog;dc
;;2;2022-01-31T11:18:41.225843861Z;2022-01-31T17:18:41.225843861Z;2022-01-31T16:29:20Z;The Software Protection service has started.;Application;dc.windomain.local;902;Classic;0;Information;0;Microsoft-Windows-Security-SPP;0;Message;win_eventlog;dc
;;2;2022-01-31T11:18:41.225843861Z;2022-01-31T17:18:41.225843861Z;2022-01-31T16:59:20Z;The Software Protection service has started.;Application;dc.windomain.local;902;Classic;0;Information;0;Microsoft-Windows-Security-SPP;0;Message;win_eventlog;dc
;;3;2022-01-31T11:18:41.225843861Z;2022-01-31T17:18:41.225843861Z;2022-01-31T11:29:10Z;[System Process];Application;dc.windomain.local;902;Classic;0;Information;0;Microsoft-Windows-Security-SPP;0;ProcessName;win_eventlog;dc
;;3;2022-01-31T11:18:41.225843861Z;2022-01-31T17:18:41.225843861Z;2022-01-31T11:59:10Z;[System Process];Application;dc.windomain.local;902;Classic;0;Information;0;Microsoft-Windows-Security-SPP;0;ProcessName;win_eventlog;dc
;;3;2022-01-31T11:18:41.225843861Z;2022-01-31T17:18:41.225843861Z;2022-01-31T12:29:10Z;[System Process];Application;dc.windomain.local;902;Classic;0;Information;0;Microsoft-Windows-Security-SPP;0;ProcessName;win_eventlog;dc
;;3;2022-01-31T11:18:41.225843861Z;2022-01-31T17:18:41.225843861Z;2022-01-31T12:59:20Z;[System Process];Application;dc.windomain.local;902;Classic;0;Information;0;Microsoft-Windows-Security-SPP;0;ProcessName;win_eventlog;dc
;;3;2022-01-31T11:18:41.225843861Z;2022-01-31T17:18:41.225843861Z;2022-01-31T13:29:20Z;[System Process];Application;dc.windomain.local;902;Classic;0;Information;0;Microsoft-Windows-Security-SPP;0;ProcessName;win_eventlog;dc
;;3;2022-01-31T11:18:41.225843861Z;2022-01-31T17:18:41.225843861Z;2022-01-31T13:59:20Z;[System Process];Application;dc.windomain.local;902;Classic;0;Information;0;Microsoft-Windows-Security-SPP;0;ProcessName;win_eventlog;dc
;;3;2022-01-31T11:18:41.225843861Z;2022-01-31T17:18:41.225843861Z;2022-01-31T14:29:20Z;[System Process];Application;dc.windomain.local;902;Classic;0;Information;0;Microsoft-Windows-Security-SPP;0;ProcessName;win_eventlog;dc
;;3;2022-01-31T11:18:41.225843861Z;2022-01-31T17:18:41.225843861Z;2022-01-31T14:59:20Z;[System Process];Application;dc.windomain.local;902;Classic;0;Information;0;Microsoft-Windows-Security-SPP;0;ProcessName;win_eventlog;dc
;;3;2022-01-31T11:18:41.225843861Z;2022-01-31T17:18:41.225843861Z;2022-01-31T15:29:20Z;[System Process];Application;dc.windomain.local;902;Classic;0;Information;0;Microsoft-Windows-Security-SPP;0;ProcessName;win_eventlog;dc
;;3;2022-01-31T11:18:41.225843861Z;2022-01-31T17:18:41.225843861Z;2022-01-31T15:59:20Z;[System Process];Application;dc.windomain.local;902;Classic;0;Information;0;Microsoft-Windows-Security-SPP;0;ProcessName;win_eventlog;dc
;;3;2022-01-31T11:18:41.225843861Z;2022-01-31T17:18:41.225843861Z;2022-01-31T16:29:20Z;[System Process];Application;dc.windomain.local;902;Classic;0;Information;0;Microsoft-Windows-Security-SPP;0;ProcessName;win_eventlog;dc
;;3;2022-01-31T11:18:41.225843861Z;2022-01-31T17:18:41.225843861Z;2022-01-31T16:59:20Z;[System Process];Application;dc.windomain.local;902;Classic;0;Information;0;Microsoft-Windows-Security-SPP;0;ProcessName;win_eventlog;dc
;;4;2022-01-31T11:18:41.225843861Z;2022-01-31T17:18:41.225843861Z;2022-01-31T11:29:10Z;;Application;dc.windomain.local;902;Classic;0;Information;0;Microsoft-Windows-Security-SPP;0;UserID;win_eventlog;dc
;;4;2022-01-31T11:18:41.225843861Z;2022-01-31T17:18:41.225843861Z;2022-01-31T11:59:10Z;;Application;dc.windomain.local;902;Classic;0;Information;0;Microsoft-Windows-Security-SPP;0;UserID;win_eventlog;dc
;;4;2022-01-31T11:18:41.225843861Z;2022-01-31T17:18:41.225843861Z;2022-01-31T12:29:10Z;;Application;dc.windomain.local;902;Classic;0;Information;0;Microsoft-Windows-Security-SPP;0;UserID;win_eventlog;dc
;;4;2022-01-31T11:18:41.225843861Z;2022-01-31T17:18:41.225843861Z;2022-01-31T12:59:20Z;;Application;dc.windomain.local;902;Classic;0;Information;0;Microsoft-Windows-Security-SPP;0;UserID;win_eventlog;dc
;;4;2022-01-31T11:18:41.225843861Z;2022-01-31T17:18:41.225843861Z;2022-01-31T13:29:20Z;;Application;dc.windomain.local;902;Classic;0;Information;0;Microsoft-Windows-Security-SPP;0;UserID;win_eventlog;dc
;;4;2022-01-31T11:18:41.225843861Z;2022-01-31T17:18:41.225843861Z;2022-01-31T13:59:20Z;;Application;dc.windomain.local;902;Classic;0;Information;0;Microsoft-Windows-Security-SPP;0;UserID;win_eventlog;dc
;;4;2022-01-31T11:18:41.225843861Z;2022-01-31T17:18:41.225843861Z;2022-01-31T14:29:20Z;;Application;dc.windomain.local;902;Classic;0;Information;0;Microsoft-Windows-Security-SPP;0;UserID;win_eventlog;dc
;;4;2022-01-31T11:18:41.225843861Z;2022-01-31T17:18:41.225843861Z;2022-01-31T14:59:20Z;;Application;dc.windomain.local;902;Classic;0;Information;0;Microsoft-Windows-Security-SPP;0;UserID;win_eventlog;dc
;;4;2022-01-31T11:18:41.225843861Z;2022-01-31T17:18:41.225843861Z;2022-01-31T15:29:20Z;;Application;dc.windomain.local;902;Classic;0;Information;0;Microsoft-Windows-Security-SPP;0;UserID;win_eventlog;dc
;;4;2022-01-31T11:18:41.225843861Z;2022-01-31T17:18:41.225843861Z;2022-01-31T15:59:20Z;;Application;dc.windomain.local;902;Classic;0;Information;0;Microsoft-Windows-Security-SPP;0;UserID;win_eventlog;dc
;;4;2022-01-31T11:18:41.225843861Z;2022-01-31T17:18:41.225843861Z;2022-01-31T16:29:20Z;;Application;dc.windomain.local;902;Classic;0;Information;0;Microsoft-Windows-Security-SPP;0;UserID;win_eventlog;dc
;;4;2022-01-31T11:18:41.225843861Z;2022-01-31T17:18:41.225843861Z;2022-01-31T16:59:20Z;;Application;dc.windomain.local;902;Classic;0;Information;0;Microsoft-Windows-Security-SPP;0;UserID;win_eventlog;dc
;;;;;;;;;;;;;;;;;;
#group;FALSE;FALSE;TRUE;TRUE;FALSE;FALSE;TRUE;TRUE;TRUE;TRUE;TRUE;TRUE;TRUE;TRUE;TRUE;TRUE;TRUE;TRUE
#datatype;string;long;dateTime:RFC3339;dateTime:RFC3339;dateTime:RFC3339;long;string;string;string;string;string;string;string;string;string;string;string;string
#default;last;;;;;;;;;;;;;;;;;
;result;table;_start;_stop;_time;_value;Channel;Computer;EventID;Keywords;Level;LevelText;Opcode;Source;Task;_field;_measurement;host
;;5;2022-01-31T11:18:41.225843861Z;2022-01-31T17:18:41.225843861Z;2022-01-31T11:29:10Z;0;Application;dc.windomain.local;902;Classic;0;Information;0;Microsoft-Windows-Security-SPP;0;Version;win_eventlog;dc
;;5;2022-01-31T11:18:41.225843861Z;2022-01-31T17:18:41.225843861Z;2022-01-31T11:59:10Z;0;Application;dc.windomain.local;902;Classic;0;Information;0;Microsoft-Windows-Security-SPP;0;Version;win_eventlog;dc
;;5;2022-01-31T11:18:41.225843861Z;2022-01-31T17:18:41.225843861Z;2022-01-31T12:29:10Z;0;Application;dc.windomain.local;902;Classic;0;Information;0;Microsoft-Windows-Security-SPP;0;Version;win_eventlog;dc
;;5;2022-01-31T11:18:41.225843861Z;2022-01-31T17:18:41.225843861Z;2022-01-31T12:59:20Z;0;Application;dc.windomain.local;902;Classic;0;Information;0;Microsoft-Windows-Security-SPP;0;Version;win_eventlog;dc
;;5;2022-01-31T11:18:41.225843861Z;2022-01-31T17:18:41.225843861Z;2022-01-31T13:29:20Z;0;Application;dc.windomain.local;902;Classic;0;Information;0;Microsoft-Windows-Security-SPP;0;Version;win_eventlog;dc
;;5;2022-01-31T11:18:41.225843861Z;2022-01-31T17:18:41.225843861Z;2022-01-31T13:59:20Z;0;Application;dc.windomain.local;902;Classic;0;Information;0;Microsoft-Windows-Security-SPP;0;Version;win_eventlog;dc
;;5;2022-01-31T11:18:41.225843861Z;2022-01-31T17:18:41.225843861Z;2022-01-31T14:29:20Z;0;Application;dc.windomain.local;902;Classic;0;Information;0;Microsoft-Windows-Security-SPP;0;Version;win_eventlog;dc
;;5;2022-01-31T11:18:41.225843861Z;2022-01-31T17:18:41.225843861Z;2022-01-31T14:59:20Z;0;Application;dc.windomain.local;902;Classic;0;Information;0;Microsoft-Windows-Security-SPP;0;Version;win_eventlog;dc
;;5;2022-01-31T11:18:41.225843861Z;2022-01-31T17:18:41.225843861Z;2022-01-31T15:29:20Z;0;Application;dc.windomain.local;902;Classic;0;Information;0;Microsoft-Windows-Security-SPP;0;Version;win_eventlog;dc
;;5;2022-01-31T11:18:41.225843861Z;2022-01-31T17:18:41.225843861Z;2022-01-31T15:59:20Z;0;Application;dc.windomain.local;902;Classic;0;Information;0;Microsoft-Windows-Security-SPP;0;Version;win_eventlog;dc
;;5;2022-01-31T11:18:41.225843861Z;2022-01-31T17:18:41.225843861Z;2022-01-31T16:29:20Z;0;Application;dc.windomain.local;902;Classic;0;Information;0;Microsoft-Windows-Security-SPP;0;Version;win_eventlog;dc
;;5;2022-01-31T11:18:41.225843861Z;2022-01-31T17:18:41.225843861Z;2022-01-31T16:59:20Z;0;Application;dc.windomain.local;902;Classic;0;Information;0;Microsoft-Windows-Security-SPP;0;Version;win_eventlog;dc
;;6;2022-01-31T11:18:41.225843861Z;2022-01-31T17:18:41.225843861Z;2022-01-31T11:29:40Z;2249;Application;dc.windomain.local;903;Classic;0;Information;0;Microsoft-Windows-Security-SPP;0;EventRecordID;win_eventlog;dc
;;6;2022-01-31T11:18:41.225843861Z;2022-01-31T17:18:41.225843861Z;2022-01-31T11:59:40Z;2256;Application;dc.windomain.local;903;Classic;0;Information;0;Microsoft-Windows-Security-SPP;0;EventRecordID;win_eventlog;dc
;;6;2022-01-31T11:18:41.225843861Z;2022-01-31T17:18:41.225843861Z;2022-01-31T12:29:50Z;2264;Application;dc.windomain.local;903;Classic;0;Information;0;Microsoft-Windows-Security-SPP;0;EventRecordID;win_eventlog;dc
;;6;2022-01-31T11:18:41.225843861Z;2022-01-31T17:18:41.225843861Z;2022-01-31T12:59:50Z;2271;Application;dc.windomain.local;903;Classic;0;Information;0;Microsoft-Windows-Security-SPP;0;EventRecordID;win_eventlog;dc
;;6;2022-01-31T11:18:41.225843861Z;2022-01-31T17:18:41.225843861Z;2022-01-31T13:29:50Z;2278;Application;dc.windomain.local;903;Classic;0;Information;0;Microsoft-Windows-Security-SPP;0;EventRecordID;win_eventlog;dc
;;6;2022-01-31T11:18:41.225843861Z;2022-01-31T17:18:41.225843861Z;2022-01-31T13:59:50Z;2285;Application;dc.windomain.local;903;Classic;0;Information;0;Microsoft-Windows-Security-SPP;0;EventRecordID;win_eventlog;dc
;;6;2022-01-31T11:18:41.225843861Z;2022-01-31T17:18:41.225843861Z;2022-01-31T14:29:50Z;2293;Application;dc.windomain.local;903;Classic;0;Information;0;Microsoft-Windows-Security-SPP;0;EventRecordID;win_eventlog;dc
;;6;2022-01-31T11:18:41.225843861Z;2022-01-31T17:18:41.225843861Z;2022-01-31T14:59:50Z;2300;Application;dc.windomain.local;903;Classic;0;Information;0;Microsoft-Windows-Security-SPP;0;EventRecordID;win_eventlog;dc
;;6;2022-01-31T11:18:41.225843861Z;2022-01-31T17:18:41.225843861Z;2022-01-31T15:29:50Z;2307;Application;dc.windomain.local;903;Classic;0;Information;0;Microsoft-Windows-Security-SPP;0;EventRecordID;win_eventlog;dc
;;6;2022-01-31T11:18:41.225843861Z;2022-01-31T17:18:41.225843861Z;2022-01-31T15:59:50Z;2314;Application;dc.windomain.local;903;Classic;0;Information;0;Microsoft-Windows-Security-SPP;0;EventRecordID;win_eventlog;dc
;;6;2022-01-31T11:18:41.225843861Z;2022-01-31T17:18:41.225843861Z;2022-01-31T16:29:50Z;2321;Application;dc.windomain.local;903;Classic;0;Information;0;Microsoft-Windows-Security-SPP;0;EventRecordID;win_eventlog;dc
;;6;2022-01-31T11:18:41.225843861Z;2022-01-31T17:18:41.225843861Z;2022-01-31T16:59:50Z;2328;Application;dc.windomain.local;903;Classic;0;Information;0;Microsoft-Windows-Security-SPP;0;EventRecordID;win_eventlog;dc
;;;;;;;;;;;;;;;;;;
#group;FALSE;FALSE;TRUE;TRUE;FALSE;FALSE;TRUE;TRUE;TRUE;TRUE;TRUE;TRUE;TRUE;TRUE;TRUE;TRUE;TRUE;TRUE
#datatype;string;long;dateTime:RFC3339;dateTime:RFC3339;dateTime:RFC3339;string;string;string;string;string;string;string;string;string;string;string;string;string
#default;last;;;;;;;;;;;;;;;;;
;result;table;_start;_stop;_time;_value;Channel;Computer;EventID;Keywords;Level;LevelText;Opcode;Source;Task;_field;_measurement;host
;;7;2022-01-31T11:18:41.225843861Z;2022-01-31T17:18:41.225843861Z;2022-01-31T11:29:40Z;The Software Protection service has stopped.;Application;dc.windomain.local;903;Classic;0;Information;0;Microsoft-Windows-Security-SPP;0;Message;win_eventlog;dc
;;7;2022-01-31T11:18:41.225843861Z;2022-01-31T17:18:41.225843861Z;2022-01-31T11:59:40Z;The Software Protection service has stopped.;Application;dc.windomain.local;903;Classic;0;Information;0;Microsoft-Windows-Security-SPP;0;Message;win_eventlog;dc
;;7;2022-01-31T11:18:41.225843861Z;2022-01-31T17:18:41.225843861Z;2022-01-31T12:29:50Z;The Software Protection service has stopped.;Application;dc.windomain.local;903;Classic;0;Information;0;Microsoft-Windows-Security-SPP;0;Message;win_eventlog;dc
;;7;2022-01-31T11:18:41.225843861Z;2022-01-31T17:18:41.225843861Z;2022-01-31T12:59:50Z;The Software Protection service has stopped.;Application;dc.windomain.local;903;Classic;0;Information;0;Microsoft-Windows-Security-SPP;0;Message;win_eventlog;dc
;;7;2022-01-31T11:18:41.225843861Z;2022-01-31T17:18:41.225843861Z;2022-01-31T13:29:50Z;The Software Protection service has stopped.;Application;dc.windomain.local;903;Classic;0;Information;0;Microsoft-Windows-Security-SPP;0;Message;win_eventlog;dc
;;7;2022-01-31T11:18:41.225843861Z;2022-01-31T17:18:41.225843861Z;2022-01-31T13:59:50Z;The Software Protection service has stopped.;Application;dc.windomain.local;903;Classic;0;Information;0;Microsoft-Windows-Security-SPP;0;Message;win_eventlog;dc
;;7;2022-01-31T11:18:41.225843861Z;2022-01-31T17:18:41.225843861Z;2022-01-31T14:29:50Z;The Software Protection service has stopped.;Application;dc.windomain.local;903;Classic;0;Information;0;Microsoft-Windows-Security-SPP;0;Message;win_eventlog;dc
;;7;2022-01-31T11:18:41.225843861Z;2022-01-31T17:18:41.225843861Z;2022-01-31T14:59:50Z;The Software Protection service has stopped.;Application;dc.windomain.local;903;Classic;0;Information;0;Microsoft-Windows-Security-SPP;0;Message;win_eventlog;dc
;;7;2022-01-31T11:18:41.225843861Z;2022-01-31T17:18:41.225843861Z;2022-01-31T15:29:50Z;The Software Protection service has stopped.;Application;dc.windomain.local;903;Classic;0;Information;0;Microsoft-Windows-Security-SPP;0;Message;win_eventlog;dc
;;7;2022-01-31T11:18:41.225843861Z;2022-01-31T17:18:41.225843861Z;2022-01-31T15:59:50Z;The Software Protection service has stopped.;Application;dc.windomain.local;903;Classic;0;Information;0;Microsoft-Windows-Security-SPP;0;Message;win_eventlog;dc
;;7;2022-01-31T11:18:41.225843861Z;2022-01-31T17:18:41.225843861Z;2022-01-31T16:29:50Z;The Software Protection service has stopped.;Application;dc.windomain.local;903;Classic;0;Information;0;Microsoft-Windows-Security-SPP;0;Message;win_eventlog;dc
;;7;2022-01-31T11:18:41.225843861Z;2022-01-31T17:18:41.225843861Z;2022-01-31T16:59:50Z;The Software Protection service has stopped.;Application;dc.windomain.local;903;Classic;0;Information;0;Microsoft-Windows-Security-SPP;0;Message;win_eventlog;dc
;;8;2022-01-31T11:18:41.225843861Z;2022-01-31T17:18:41.225843861Z;2022-01-31T11:29:40Z;[System Process];Application;dc.windomain.local;903;Classic;0;Information;0;Microsoft-Windows-Security-SPP;0;ProcessName;win_eventlog;dc
;;8;2022-01-31T11:18:41.225843861Z;2022-01-31T17:18:41.225843861Z;2022-01-31T11:59:40Z;[System Process];Application;dc.windomain.local;903;Classic;0;Information;0;Microsoft-Windows-Security-SPP;0;ProcessName;win_eventlog;dc
;;8;2022-01-31T11:18:41.225843861Z;2022-01-31T17:18:41.225843861Z;2022-01-31T12:29:50Z;[System Process];Application;dc.windomain.local;903;Classic;0;Information;0;Microsoft-Windows-Security-SPP;0;ProcessName;win_eventlog;dc
;;8;2022-01-31T11:18:41.225843861Z;2022-01-31T17:18:41.225843861Z;2022-01-31T12:59:50Z;[System Process];Application;dc.windomain.local;903;Classic;0;Information;0;Microsoft-Windows-Security-SPP;0;ProcessName;win_eventlog;dc
;;8;2022-01-31T11:18:41.225843861Z;2022-01-31T17:18:41.225843861Z;2022-01-31T13:29:50Z;[System Process];Application;dc.windomain.local;903;Classic;0;Information;0;Microsoft-Windows-Security-SPP;0;ProcessName;win_eventlog;dc
;;8;2022-01-31T11:18:41.225843861Z;2022-01-31T17:18:41.225843861Z;2022-01-31T13:59:50Z;[System Process];Application;dc.windomain.local;903;Classic;0;Information;0;Microsoft-Windows-Security-SPP;0;ProcessName;win_eventlog;dc
;;8;2022-01-31T11:18:41.225843861Z;2022-01-31T17:18:41.225843861Z;2022-01-31T14:29:50Z;[System Process];Application;dc.windomain.local;903;Classic;0;Information;0;Microsoft-Windows-Security-SPP;0;ProcessName;win_eventlog;dc
;;8;2022-01-31T11:18:41.225843861Z;2022-01-31T17:18:41.225843861Z;2022-01-31T14:59:50Z;[System Process];Application;dc.windomain.local;903;Classic;0;Information;0;Microsoft-Windows-Security-SPP;0;ProcessName;win_eventlog;dc
;;8;2022-01-31T11:18:41.225843861Z;2022-01-31T17:18:41.225843861Z;2022-01-31T15:29:50Z;[System Process];Application;dc.windomain.local;903;Classic;0;Information;0;Microsoft-Windows-Security-SPP;0;ProcessName;win_eventlog;dc
;;8;2022-01-31T11:18:41.225843861Z;2022-01-31T17:18:41.225843861Z;2022-01-31T15:59:50Z;[System Process];Application;dc.windomain.local;903;Classic;0;Information;0;Microsoft-Windows-Security-SPP;0;ProcessName;win_eventlog;dc
;;8;2022-01-31T11:18:41.225843861Z;2022-01-31T17:18:41.225843861Z;2022-01-31T16:29:50Z;[System Process];Application;dc.windomain.local;903;Classic;0;Information;0;Microsoft-Windows-Security-SPP;0;ProcessName;win_eventlog;dc
;;8;2022-01-31T11:18:41.225843861Z;2022-01-31T17:18:41.225843861Z;2022-01-31T16:59:50Z;[System Process];Application;dc.windomain.local;903;Classic;0;Information;0;Microsoft-Windows-Security-SPP;0;ProcessName;win_eventlog;dc
;;9;2022-01-31T11:18:41.225843861Z;2022-01-31T17:18:41.225843861Z;2022-01-31T11:29:40Z;;Application;dc.windomain.local;903;Classic;0;Information;0;Microsoft-Windows-Security-SPP;0;UserID;win_eventlog;dc
;;9;2022-01-31T11:18:41.225843861Z;2022-01-31T17:18:41.225843861Z;2022-01-31T11:59:40Z;;Application;dc.windomain.local;903;Classic;0;Information;0;Microsoft-Windows-Security-SPP;0;UserID;win_eventlog;dc
;;9;2022-01-31T11:18:41.225843861Z;2022-01-31T17:18:41.225843861Z;2022-01-31T12:29:50Z;;Application;dc.windomain.local;903;Classic;0;Information;0;Microsoft-Windows-Security-SPP;0;UserID;win_eventlog;dc
;;9;2022-01-31T11:18:41.225843861Z;2022-01-31T17:18:41.225843861Z;2022-01-31T12:59:50Z;;Application;dc.windomain.local;903;Classic;0;Information;0;Microsoft-Windows-Security-SPP;0;UserID;win_eventlog;dc
;;9;2022-01-31T11:18:41.225843861Z;2022-01-31T17:18:41.225843861Z;2022-01-31T13:29:50Z;;Application;dc.windomain.local;903;Classic;0;Information;0;Microsoft-Windows-Security-SPP;0;UserID;win_eventlog;dc
;;9;2022-01-31T11:18:41.225843861Z;2022-01-31T17:18:41.225843861Z;2022-01-31T13:59:50Z;;Application;dc.windomain.local;903;Classic;0;Information;0;Microsoft-Windows-Security-SPP;0;UserID;win_eventlog;dc
;;9;2022-01-31T11:18:41.225843861Z;2022-01-31T17:18:41.225843861Z;2022-01-31T14:29:50Z;;Application;dc.windomain.local;903;Classic;0;Information;0;Microsoft-Windows-Security-SPP;0;UserID;win_eventlog;dc
;;9;2022-01-31T11:18:41.225843861Z;2022-01-31T17:18:41.225843861Z;2022-01-31T14:59:50Z;;Application;dc.windomain.local;903;Classic;0;Information;0;Microsoft-Windows-Security-SPP;0;UserID;win_eventlog;dc
;;9;2022-01-31T11:18:41.225843861Z;2022-01-31T17:18:41.225843861Z;2022-01-31T15:29:50Z;;Application;dc.windomain.local;903;Classic;0;Information;0;Microsoft-Windows-Security-SPP;0;UserID;win_eventlog;dc
;;9;2022-01-31T11:18:41.225843861Z;2022-01-31T17:18:41.225843861Z;2022-01-31T15:59:50Z;;Application;dc.windomain.local;903;Classic;0;Information;0;Microsoft-Windows-Security-SPP;0;UserID;win_eventlog;dc
;;9;2022-01-31T11:18:41.225843861Z;2022-01-31T17:18:41.225843861Z;2022-01-31T16:29:50Z;;Application;dc.windomain.local;903;Classic;0;Information;0;Microsoft-Windows-Security-SPP;0;UserID;win_eventlog;dc
;;9;2022-01-31T11:18:41.225843861Z;2022-01-31T17:18:41.225843861Z;2022-01-31T16:59:50Z;;Application;dc.windomain.local;903;Classic;0;Information;0;Microsoft-Windows-Security-SPP;0;UserID;win_eventlog;dc
;;;;;;;;;;;;;;;;;;
#group;FALSE;FALSE;TRUE;TRUE;FALSE;FALSE;TRUE;TRUE;TRUE;TRUE;TRUE;TRUE;TRUE;TRUE;TRUE;TRUE;TRUE;TRUE
#datatype;string;long;dateTime:RFC3339;dateTime:RFC3339;dateTime:RFC3339;long;string;string;string;string;string;string;string;string;string;string;string;string
#default;last;;;;;;;;;;;;;;;;;
;result;table;_start;_stop;_time;_value;Channel;Computer;EventID;Keywords;Level;LevelText;Opcode;Source;Task;_field;_measurement;host
;;10;2022-01-31T11:18:41.225843861Z;2022-01-31T17:18:41.225843861Z;2022-01-31T11:29:40Z;0;Application;dc.windomain.local;903;Classic;0;Information;0;Microsoft-Windows-Security-SPP;0;Version;win_eventlog;dc
;;10;2022-01-31T11:18:41.225843861Z;2022-01-31T17:18:41.225843861Z;2022-01-31T11:59:40Z;0;Application;dc.windomain.local;903;Classic;0;Information;0;Microsoft-Windows-Security-SPP;0;Version;win_eventlog;dc
;;10;2022-01-31T11:18:41.225843861Z;2022-01-31T17:18:41.225843861Z;2022-01-31T12:29:50Z;0;Application;dc.windomain.local;903;Classic;0;Information;0;Microsoft-Windows-Security-SPP;0;Version;win_eventlog;dc
;;10;2022-01-31T11:18:41.225843861Z;2022-01-31T17:18:41.225843861Z;2022-01-31T12:59:50Z;0;Application;dc.windomain.local;903;Classic;0;Information;0;Microsoft-Windows-Security-SPP;0;Version;win_eventlog;dc
;;10;2022-01-31T11:18:41.225843861Z;2022-01-31T17:18:41.225843861Z;2022-01-31T13:29:50Z;0;Application;dc.windomain.local;903;Classic;0;Information;0;Microsoft-Windows-Security-SPP;0;Version;win_eventlog;dc
;;10;2022-01-31T11:18:41.225843861Z;2022-01-31T17:18:41.225843861Z;2022-01-31T13:59:50Z;0;Application;dc.windomain.local;903;Classic;0;Information;0;Microsoft-Windows-Security-SPP;0;Version;win_eventlog;dc
;;10;2022-01-31T11:18:41.225843861Z;2022-01-31T17:18:41.225843861Z;2022-01-31T14:29:50Z;0;Application;dc.windomain.local;903;Classic;0;Information;0;Microsoft-Windows-Security-SPP;0;Version;win_eventlog;dc
;;10;2022-01-31T11:18:41.225843861Z;2022-01-31T17:18:41.225843861Z;2022-01-31T14:59:50Z;0;Application;dc.windomain.local;903;Classic;0;Information;0;Microsoft-Windows-Security-SPP;0;Version;win_eventlog;dc
;;10;2022-01-31T11:18:41.225843861Z;2022-01-31T17:18:41.225843861Z;2022-01-31T15:29:50Z;0;Application;dc.windomain.local;903;Classic;0;Information;0;Microsoft-Windows-Security-SPP;0;Version;win_eventlog;dc
;;10;2022-01-31T11:18:41.225843861Z;2022-01-31T17:18:41.225843861Z;2022-01-31T15:59:50Z;0;Application;dc.windomain.local;903;Classic;0;Information;0;Microsoft-Windows-Security-SPP;0;Version;win_eventlog;dc
;;10;2022-01-31T11:18:41.225843861Z;2022-01-31T17:18:41.225843861Z;2022-01-31T16:29:50Z;0;Application;dc.windomain.local;903;Classic;0;Information;0;Microsoft-Windows-Security-SPP;0;Version;win_eventlog;dc
;;10;2022-01-31T11:18:41.225843861Z;2022-01-31T17:18:41.225843861Z;2022-01-31T16:59:50Z;0;Application;dc.windomain.local;903;Classic;0;Information;0;Microsoft-Windows-Security-SPP;0;Version;win_eventlog;dc